{
    "@class": "com.kony.gen.viz.model.component.KVizButton",
    "DNDConfig": null,
    "__parentReadjusting__": false,
    "_height_": {
        "type": "string",
        "value": "50dp"
    },
    "_left_": {
        "type": "string",
        "value": "49dp"
    },
    "_margin_": [
        6,
        6,
        6,
        6
    ],
    "_padding_": [
        0,
        0,
        0,
        0
    ],
    "_skin_": "s1ae3ab7d409467087f0bf162d9c8244",
    "_text_": "Button",
    "_top_": {
        "type": "string",
        "value": "133dp"
    },
    "_width_": {
        "type": "string",
        "value": "260dp"
    },
    "canUpdateUI": true,
    "containerweight": 100,
    "contentalignment": 5,
    "displaytext": true,
    "focusskin": "s747e9de18cf474680515c531163e889",
    "id": "Button0db7578d2ea6149",
    "info": null,
    "iscustomlayout": false,
    "isvisible": true,
    "kuid": "hba7aa2fd789492d9c6aceb44aca44df",
    "name": "kony.ui.Button",
    "parent": "Home",
    "pf": "Home",
    "retaincontentalignment": false,
    "retainflexpositionproperties": false,
    "wType": "Button",
    "zindex": 1
}